C:\aplicacionweb\src\main\java\programacionweb\utilerias\UrlRelativo.java
C:\aplicacionweb\src\main\java\programacionweb\controladores\ControladorInicio.java
C:\aplicacionweb\src\main\java\programacionweb\modelos\Cifrado.java
C:\aplicacionweb\src\main\java\programacionweb\utilerias\Suma.java
C:\aplicacionweb\src\main\java\programacionweb\modelos\CodificarOtro.java
